<?xml version='1.0'?>
<robot name="car">

	<material name="blue">
    <color rgba="0 0 0.8 1"/>
	  </material>
	  <material name="black">
	    <color rgba="0 0 0 1"/>
	  </material>
	  <material name="white">
	    <color rgba="1 1 1 1"/>
	  </material>
	<link name="body_link">
	    <visual>
	    	<origin rpy="0 0 0" xyz="0 0 0.05"/>
	      <geometry>
	        <box size="0.5 0.3 0.1"/>
	      </geometry>
	      <material name="white"/>
	      	
	    </visual>
  	</link>

  	<link name="right_front_wheel">
    <visual>
      <origin rpy="1.57075 0 0" xyz="0 0 0"/>
      <geometry>
        <cylinder length="0.1" radius="0.035"/>
      </geometry>
      <material name="black"/>
      <!-- <origin rpy="0 0 0" xyz="0 0 0"/> -->
    </visual>
  </link>
  <joint name="right_front_wheel_joint" type="continuous">
    <axis rpy="0 0 0" xyz="0 1 0"/>
    <parent link="body_link"/>
    <child link="right_front_wheel"/>
    <origin rpy="0 0 0" xyz="0.25 0.15 0"/>
  </joint>

</robot>